lab08/lab083/simulation/qsim/lab083.msim.vcd
$comment
	File created using the following command:
		vcd file lab083.msim.vcd -direction
$end
$date
	Fri Nov 29 15:44:49 2019
$end
$version
	ModelSim Version 10.5b
$end
$timescale
	1ps
$end

$scope module lab083_vlg_vec_tst $end
$var reg 1 ! X $end
$var reg 1 " clock $end
$var wire 1 # A $end
$var wire 1 $ B $end
$var wire 1 % Y $end
$var wire 1 & notA $end
$var wire 1 ' notB $end

$scope module i1 $end
$var wire 1 ( gnd $end
$var wire 1 ) vcc $end
$var wire 1 * unknown $end
$var tri1 1 + devclrn $end
$var tri1 1 , devpor $end
$var tri1 1 - devoe $end
$var wire 1 . A~output_o $end
$var wire 1 / notA~output_o $end
$var wire 1 0 B~output_o $end
$var wire 1 1 notB~output_o $end
$var wire 1 2 Y~output_o $end
$var wire 1 3 clock~input_o $end
$var wire 1 4 clock~inputclkctrl_outclk $end
$var wire 1 5 X~input_o $end
$var wire 1 6 B~0_combout $end
$var wire 1 7 B~reg0_q $end
$var wire 1 8 A~0_combout $end
$var wire 1 9 A~reg0_q $end
$var wire 1 : Y~0_combout $end
$upscope $end
$upscope $end
$enddefinitions $end
#0
$dumpvars
0!
0"
0#
0$
0%
1&
1'
0(
1)
x*
1+
1,
1-
0.
1/
00
11
02
03
04
05
06
07
08
09
0:
$end
#500
1"
13
14
#1000
1!
0"
15
03
04
16
#1500
1"
13
14
17
01
10
1$
0'
18
06
#2000
0!
0"
05
03
04
1:
08
12
1%
#2500
1"
13
14
07
11
00
0$
1'
0:
02
0%
#3000
1!
0"
15
03
04
16
#3500
1"
13
14
17
01
10
1$
0'
18
06
#4000
0!
0"
05
03
04
1:
08
12
1%
#4500
1"
13
14
07
11
00
0$
1'
0:
02
0%
#5000
1!
0"
15
03
04
16
#5500
1"
13
14
17
01
10
1$
0'
18
06
#6000
0!
0"
05
03
04
1:
08
12
1%
#6500
1"
13
14
07
11
00
0$
1'
0:
02
0%
#7000
1!
0"
15
03
04
16
#7500
1"
13
14
17
01
10
1$
0'
18
06
#8000
0!
0"
05
03
04
1:
08
12
1%
#8500
1"
13
14
07
11
00
0$
1'
0:
02
0%
#9000
1!
0"
15
03
04
16
#9500
1"
13
14
17
01
10
1$
0'
18
06
#10000
0!
0"
05
03
04
1:
08
12
1%
#10500
1"
13
14
07
11
00
0$
1'
0:
02
0%
#11000
1!
0"
15
03
04
16
#11500
1"
13
14
17
01
10
1$
0'
18
06
#12000
0!
0"
05
03
04
1:
08
12
1%
#12500
1"
13
14
07
11
00
0$
1'
0:
02
0%
#13000
1!
0"
15
03
04
16
#13500
1"
13
14
17
01
10
1$
0'
18
06
#14000
0!
0"
05
03
04
1:
08
12
1%
#14500
1"
13
14
07
11
00
0$
1'
0:
02
0%
#15000
1!
0"
15
03
04
16
#15500
1"
13
14
17
01
10
1$
0'
18
06
#16000
0!
0"
05
03
04
1:
08
12
1%
#16500
1"
13
14
07
11
00
0$
1'
0:
02
0%
#17000
1!
0"
15
03
04
16
#17500
1"
13
14
17
01
10
1$
0'
18
06
#18000
0!
0"
05
03
04
1:
08
12
1%
#18500
1"
13
14
07
11
00
0$
1'
0:
02
0%
#19000
1!
0"
15
03
04
16
#19500
1"
13
14
17
01
10
1$
0'
18
06
#20000
0!
0"
05
03
04
1:
08
12
1%
#20500
1"
13
14
07
11
00
0$
1'
0:
02
0%
#21000
1!
0"
15
03
04
16
#21500
1"
13
14
17
01
10
1$
0'
18
06
#22000
0!
0"
05
03
04
1:
08
12
1%
#22500
1"
13
14
07
11
00
0$
1'
0:
02
0%
#23000
1!
0"
15
03
04
16
#23500
1"
13
14
17
01
10
1$
0'
18
06
#24000
0!
0"
05
03
04
1:
08
12
1%
#24500
1"
13
14
07
11
00
0$
1'
0:
02
0%
#25000
1!
0"
15
03
04
16
#25500
1"
13
14
17
01
10
1$
0'
18
06
#26000
0!
0"
05
03
04
1:
08
12
1%
#26500
1"
13
14
07
11
00
0$
1'
0:
02
0%
#27000
1!
0"
15
03
04
16
#27500
1"
13
14
17
01
10
1$
0'
18
06
#28000
0!
0"
05
03
04
1:
08
12
1%
#28500
1"
13
14
07
11
00
0$
1'
0:
02
0%
#29000
1!
0"
15
03
04
16
#29500
1"
13
14
17
01
10
1$
0'
18
06
#30000
0!
0"
05
03
04
1:
08
12
1%
#30500
1"
13
14
07
11
00
0$
1'
0:
02
0%
#31000
1!
0"
15
03
04
16
#31500
1"
13
14
17
01
10
1$
0'
18
06
