lab08new/lab082/simulation/qsim/lab082.msim.vcd
$comment
	File created using the following command:
		vcd file lab082.msim.vcd -direction
$end
$date
	Thu Dec 12 23:08:02 2019
$end
$version
	ModelSim Version 10.5b
$end
$timescale
	1ps
$end

$scope module lab082_vlg_vec_tst $end
$var reg 1 ! A $end
$var reg 1 " B $end
$var reg 1 # C $end
$var wire 1 $ X $end
$var wire 1 % Y $end

$scope module i1 $end
$var wire 1 & gnd $end
$var wire 1 ' vcc $end
$var wire 1 ( unknown $end
$var tri1 1 ) devclrn $end
$var tri1 1 * devpor $end
$var tri1 1 + devoe $end
$var wire 1 , X~output_o $end
$var wire 1 - Y~output_o $end
$var wire 1 . B~input_o $end
$var wire 1 / C~input_o $end
$var wire 1 0 A~input_o $end
$var wire 1 1 X~0_combout $end
$var wire 1 2 Y~0_combout $end
$upscope $end
$upscope $end
$enddefinitions $end
#0
$dumpvars
0!
0"
0#
0$
1%
0&
1'
x(
1)
1*
1+
0,
1-
0.
0/
00
01
02
$end
#500000
1#
1/
11
1,
1$
#1000000
1"
0#
1.
0/
12
01
0,
0-
0%
0$
#1500000
1#
1/
11
1,
1$
#2000000
1!
0"
0#
10
0.
0/
01
0,
0$
#2500000
1#
1/
02
1-
1%
#3000000
1"
0#
1.
0/
12
0-
0%
#3500000
1#
1/
02
11
1,
1-
1%
1$
#4000000
0!
0"
0#
00
0.
0/
01
0,
0$
#4500000
1#
1/
11
1,
1$
#5000000
1"
0#
1.
0/
12
01
0,
0-
0%
0$
#5500000
1#
1/
11
1,
1$
#6000000
1!
0"
0#
10
0.
0/
01
0,
0$
#6500000
1#
1/
02
1-
1%
#7000000
1"
0#
1.
0/
12
0-
0%
#7500000
1#
1/
02
11
1,
1-
1%
1$
