lab08new/lab081/simulation/qsim/lab081.msim.vcd
$comment
	File created using the following command:
		vcd file lab081.msim.vcd -direction
$end
$date
	Thu Dec 12 23:00:34 2019
$end
$version
	ModelSim Version 10.5b
$end
$timescale
	1ps
$end

$scope module lab081_vlg_vec_tst $end
$var reg 8 ! A [7:0] $end
$var reg 1 " L $end
$var reg 1 # S $end
$var reg 1 $ clock $end
$var wire 1 % Q [7] $end
$var wire 1 & Q [6] $end
$var wire 1 ' Q [5] $end
$var wire 1 ( Q [4] $end
$var wire 1 ) Q [3] $end
$var wire 1 * Q [2] $end
$var wire 1 + Q [1] $end
$var wire 1 , Q [0] $end

$scope module i1 $end
$var wire 1 - gnd $end
$var wire 1 . vcc $end
$var wire 1 / unknown $end
$var tri1 1 0 devclrn $end
$var tri1 1 1 devpor $end
$var tri1 1 2 devoe $end
$var wire 1 3 A[0]~input_o $end
$var wire 1 4 A[1]~input_o $end
$var wire 1 5 A[2]~input_o $end
$var wire 1 6 A[3]~input_o $end
$var wire 1 7 A[4]~input_o $end
$var wire 1 8 A[5]~input_o $end
$var wire 1 9 A[6]~input_o $end
$var wire 1 : A[7]~input_o $end
$var wire 1 ; S~input_o $end
$var wire 1 < L~input_o $end
$var wire 1 = clock~input_o $end
$var wire 1 > Q[0]~output_o $end
$var wire 1 ? Q[1]~output_o $end
$var wire 1 @ Q[2]~output_o $end
$var wire 1 A Q[3]~output_o $end
$var wire 1 B Q[4]~output_o $end
$var wire 1 C Q[5]~output_o $end
$var wire 1 D Q[6]~output_o $end
$var wire 1 E Q[7]~output_o $end
$upscope $end
$upscope $end
$enddefinitions $end
#0
$dumpvars
b11 !
0"
0#
1$
0,
0+
0*
0)
0(
0'
0&
0%
0-
1.
x/
10
11
12
13
14
05
06
07
08
09
0:
0;
0<
1=
0>
0?
0@
0A
0B
0C
0D
0E
$end
#500000
0$
0=
#1000000
1#
1$
1;
1=
#1500000
0$
0=
#2000000
1"
0#
1$
1<
0;
1=
#2500000
0$
0=
#3000000
1#
1$
1;
1=
#3500000
0$
0=
#4000000
0"
0#
1$
0<
0;
1=
#4500000
0$
0=
#5000000
1#
1$
1;
1=
#5500000
0$
0=
#6000000
1"
0#
1$
1<
0;
1=
#6500000
0$
0=
#7000000
1#
1$
1;
1=
#7500000
0$
0=
#8000000
0"
0#
1$
0<
0;
1=
#8500000
0$
0=
#9000000
1#
1$
1;
1=
#9500000
0$
0=
#10000000
1"
0#
1$
1<
0;
1=
#10500000
0$
0=
#11000000
1#
1$
1;
1=
#11500000
0$
0=
#12000000
0"
0#
1$
0<
0;
1=
#12500000
0$
0=
#13000000
1#
1$
1;
1=
#13500000
0$
0=
#14000000
1"
0#
1$
1<
0;
1=
#14500000
0$
0=
#15000000
1#
1$
1;
1=
#15500000
0$
0=
