lab05/lab05/simulation/qsim/lab05.msim.vcd
$comment
	File created using the following command:
		vcd file lab05.msim.vcd -direction
$end
$date
	Fri Nov 15 18:38:04 2019
$end
$version
	ModelSim Version 10.5b
$end
$timescale
	1ps
$end

$scope module lab05_vlg_vec_tst $end
$var reg 1 ! Clk $end
$var reg 1 " Count $end
$var wire 1 # pin_name1 $end
$var wire 1 $ pin_name2 $end
$var wire 1 % pin_name3 $end
$var wire 1 & pin_name4 $end
$var wire 1 ' pin_name5 $end
$var wire 1 ( pin_name6 $end
$var wire 1 ) pin_name7 $end
$var wire 1 * pin_name8 $end
$var wire 1 + pin_name9 $end
$var wire 1 , pin_name10 $end
$var wire 1 - pin_name11 $end
$var wire 1 . pin_name12 $end
$var wire 1 / pin_name13 $end
$var wire 1 0 pin_name14 $end
$var wire 1 1 pin_name15 $end
$var wire 1 2 pin_name16 $end
$var wire 1 3 pin_name17 $end
$var wire 1 4 pin_name18 $end
$var wire 1 5 pin_name19 $end
$var wire 1 6 pin_name20 $end
$var wire 1 7 pin_name21 $end
$var wire 1 8 pin_name22 $end
$var wire 1 9 pin_name23 $end
$var wire 1 : pin_name24 $end
$var wire 1 ; pin_name25 $end
$var wire 1 < pin_name26 $end
$var wire 1 = pin_name27 $end
$var wire 1 > pin_name28 $end

$scope module i1 $end
$var wire 1 ? gnd $end
$var wire 1 @ vcc $end
$var wire 1 A unknown $end
$var tri1 1 B devclrn $end
$var tri1 1 C devpor $end
$var tri1 1 D devoe $end
$var wire 1 E pin_name1~output_o $end
$var wire 1 F pin_name2~output_o $end
$var wire 1 G pin_name3~output_o $end
$var wire 1 H pin_name4~output_o $end
$var wire 1 I pin_name5~output_o $end
$var wire 1 J pin_name6~output_o $end
$var wire 1 K pin_name7~output_o $end
$var wire 1 L pin_name8~output_o $end
$var wire 1 M pin_name9~output_o $end
$var wire 1 N pin_name10~output_o $end
$var wire 1 O pin_name11~output_o $end
$var wire 1 P pin_name12~output_o $end
$var wire 1 Q pin_name13~output_o $end
$var wire 1 R pin_name14~output_o $end
$var wire 1 S pin_name15~output_o $end
$var wire 1 T pin_name16~output_o $end
$var wire 1 U pin_name17~output_o $end
$var wire 1 V pin_name18~output_o $end
$var wire 1 W pin_name19~output_o $end
$var wire 1 X pin_name20~output_o $end
$var wire 1 Y pin_name21~output_o $end
$var wire 1 Z pin_name22~output_o $end
$var wire 1 [ pin_name23~output_o $end
$var wire 1 \ pin_name24~output_o $end
$var wire 1 ] pin_name25~output_o $end
$var wire 1 ^ pin_name26~output_o $end
$var wire 1 _ pin_name27~output_o $end
$var wire 1 ` pin_name28~output_o $end
$var wire 1 a Clk~input_o $end
$var wire 1 b Clk~inputclkctrl_outclk $end
$var wire 1 c Count~input_o $end
$var wire 1 d inst54~0_combout $end
$var wire 1 e inst65~combout $end
$var wire 1 f inst57~0_combout $end
$var wire 1 g inst57~q $end
$var wire 1 h inst69~0_combout $end
$var wire 1 i inst54~q $end
$var wire 1 j inst55~0_combout $end
$var wire 1 k inst55~q $end
$var wire 1 l inst56~0_combout $end
$var wire 1 m inst56~q $end
$var wire 1 n inst240|WideOr6~0_combout $end
$var wire 1 o inst240|WideOr5~0_combout $end
$var wire 1 p inst240|WideOr4~0_combout $end
$var wire 1 q inst240|WideOr3~0_combout $end
$var wire 1 r inst240|WideOr2~0_combout $end
$var wire 1 s inst240|WideOr1~0_combout $end
$var wire 1 t inst240|WideOr0~0_combout $end
$var wire 1 u inst70~0_combout $end
$var wire 1 v inst71~0_combout $end
$var wire 1 w inst73~0_combout $end
$var wire 1 x inst73~q $end
$var wire 1 y inst82~combout $end
$var wire 1 z inst71~q $end
$var wire 1 { inst72~0_combout $end
$var wire 1 | inst72~q $end
$var wire 1 } inst213|WideOr6~0_combout $end
$var wire 1 ~ inst213|WideOr5~0_combout $end
$var wire 1 !! inst213|Decoder0~0_combout $end
$var wire 1 "! inst213|WideOr3~0_combout $end
$var wire 1 #! inst213|WideOr2~0_combout $end
$var wire 1 $! inst213|WideOr1~0_combout $end
$var wire 1 %! inst213|WideOr0~0_combout $end
$var wire 1 &! inst100~0_combout $end
$var wire 1 '! inst84~0_combout $end
$var wire 1 (! inst96~0_combout $end
$var wire 1 )! inst84~q $end
$var wire 1 *! inst85~0_combout $end
$var wire 1 +! inst85~q $end
$var wire 1 ,! inst86~0_combout $end
$var wire 1 -! inst86~1_combout $end
$var wire 1 .! inst86~q $end
$var wire 1 /! inst92~0_combout $end
$var wire 1 0! inst87~0_combout $end
$var wire 1 1! inst87~q $end
$var wire 1 2! inst45|WideOr6~0_combout $end
$var wire 1 3! inst45|WideOr5~0_combout $end
$var wire 1 4! inst45|WideOr4~0_combout $end
$var wire 1 5! inst45|WideOr3~0_combout $end
$var wire 1 6! inst45|WideOr2~0_combout $end
$var wire 1 7! inst45|WideOr1~0_combout $end
$var wire 1 8! inst45|WideOr0~0_combout $end
$var wire 1 9! inst108~0_combout $end
$var wire 1 :! inst108~combout $end
$var wire 1 ;! inst101~0_combout $end
$var wire 1 <! inst241~0_combout $end
$var wire 1 =! inst241~q $end
$var wire 1 >! inst19~0_combout $end
$var wire 1 ?! inst19~q $end
$var wire 1 @! inst105~combout $end
$var wire 1 A! inst101~q $end
$var wire 1 B! inst79|WideOr6~0_combout $end
$var wire 1 C! inst79|WideOr5~0_combout $end
$var wire 1 D! inst79|Decoder0~0_combout $end
$var wire 1 E! inst79|WideOr3~0_combout $end
$var wire 1 F! inst79|WideOr2~0_combout $end
$var wire 1 G! inst79|WideOr1~0_combout $end
$var wire 1 H! inst79|WideOr0~0_combout $end
$upscope $end
$upscope $end
$enddefinitions $end
#0
$dumpvars
0!
1"
0#
0$
0%
0&
0'
0(
1)
0*
0+
0,
0-
0.
0/
10
01
02
03
04
05
06
17
08
09
0:
0;
0<
0=
1>
0?
1@
xA
1B
1C
1D
0E
0F
0G
0H
0I
0J
1K
0L
0M
0N
0O
0P
0Q
1R
0S
0T
0U
0V
0W
0X
1Y
0Z
0[
0\
0]
0^
0_
1`
0a
0b
1c
1d
0e
0f
0g
0h
0i
0j
0k
0l
0m
0n
0o
0p
0q
0r
0s
0t
0u
0v
0w
0x
0y
0z
0{
0|
0}
0~
0!!
0"!
0#!
0$!
1%!
0&!
0'!
0(!
0)!
0*!
0+!
1,!
0-!
0.!
0/!
00!
01!
02!
03!
04!
05!
06!
07!
08!
09!
0:!
0;!
0<!
0=!
0>!
0?!
0@!
0A!
0B!
0C!
0D!
0E!
0F!
0G!
1H!
$end
#80000
1!
1a
1b
1i
1s
1r
1q
1n
1j
0d
1E
1H
1I
1J
1(
1'
1&
1#
#160000
0!
0a
0b
#240000
1!
1a
1b
1k
0i
1t
0r
0q
1p
0n
1d
0E
1G
0H
0I
0K
0)
0'
0&
1%
0#
#320000
0!
0a
0b
#400000
1!
1a
1b
1i
1r
0p
1l
0j
0d
0G
1I
1'
0%
#480000
0!
0a
0b
#560000
1!
1a
1b
1m
0k
0i
0s
1q
1n
1d
1E
1H
0J
0(
1&
1#
#640000
0!
0a
0b
#720000
1!
1a
1b
1i
0q
1o
0n
1j
0d
0E
1F
0H
0&
1$
0#
#800000
0!
0a
0b
#880000
1!
1a
1b
1k
0i
0r
1d
0I
0'
#960000
0!
0a
0b
#1040000
1!
1a
1b
1i
0t
1e
1s
1r
1q
0o
0l
0j
0d
0F
1H
1I
1J
1K
1)
1(
1'
1&
0$
1f
#1120000
0!
0a
0b
#1200000
1!
1a
1b
0m
0k
0i
1g
1t
0e
0s
0r
0q
1d
0f
0H
0I
0J
0K
0)
0(
0'
0&
1f
#1280000
0!
0a
0b
#1360000
1!
1a
1b
1i
1u
1r
1j
0d
1I
1'
1v
#1440000
0!
0a
0b
#1520000
1!
1a
1b
1z
1k
0i
0u
1h
1$!
1#!
1"!
1}
1{
0v
0r
1q
1d
1H
0I
1L
1O
1P
1Q
1/
1.
1-
1*
0'
1&
0{
1v
0g
0k
0t
0h
0q
0f
0j
0H
1K
1)
0&
#1600000
0!
0a
0b
#1680000
1!
1a
1b
1i
1s
1r
1q
1n
1j
0d
1E
1H
1I
1J
1(
1'
1&
1#
#1760000
0!
0a
0b
#1840000
1!
1a
1b
1k
0i
1t
0r
0q
1p
0n
1d
0E
1G
0H
0I
0K
0)
0'
0&
1%
0#
#1920000
0!
0a
0b
#2000000
1!
1a
1b
1i
1r
0p
1l
0j
0d
0G
1I
1'
0%
#2080000
0!
0a
0b
#2160000
1!
1a
1b
1m
0k
0i
0s
1q
1n
1d
1E
1H
0J
0(
1&
1#
#2240000
0!
0a
0b
#2320000
1!
1a
1b
1i
0q
1o
0n
1j
0d
0E
1F
0H
0&
1$
0#
#2400000
0!
0a
0b
#2480000
1!
1a
1b
1k
0i
0r
1d
0I
0'
#2560000
0!
0a
0b
#2640000
1!
1a
1b
1i
0t
1e
1s
1r
1q
0o
0l
0j
0d
0F
1H
1I
1J
1K
1)
1(
1'
1&
0$
1f
#2720000
0!
0a
0b
#2800000
1!
1a
1b
0m
0k
0i
1g
1t
0e
0s
0r
0q
1d
0f
0H
0I
0J
0K
0)
0(
0'
0&
1f
#2880000
0!
0a
0b
#2960000
1!
1a
1b
1i
1u
1r
1j
0d
1I
1'
1{
0v
#3040000
0!
0a
0b
#3120000
1!
1a
1b
1|
0z
1k
0i
0u
1h
0%!
0#!
0"!
1!!
0}
1v
0r
1q
1d
1H
0I
0L
1N
0O
0P
0R
00
0.
0-
1,
0*
0'
1&
0v
0g
0k
0t
0h
0q
0f
0j
0H
1K
1)
0&
#3200000
0!
0a
0b
#3280000
1!
1a
1b
1i
1s
1r
1q
1n
1j
0d
1E
1H
1I
1J
1(
1'
1&
1#
#3360000
0!
0a
0b
#3440000
1!
1a
1b
1k
0i
1t
0r
0q
1p
0n
1d
0E
1G
0H
0I
0K
0)
0'
0&
1%
0#
#3520000
0!
0a
0b
#3600000
1!
1a
1b
1i
1r
0p
1l
0j
0d
0G
1I
1'
0%
#3680000
0!
0a
0b
#3760000
1!
1a
1b
1m
0k
0i
0s
1q
1n
1d
1E
1H
0J
0(
1&
1#
#3840000
0!
0a
0b
#3920000
1!
1a
1b
1i
0q
1o
0n
1j
0d
0E
1F
0H
0&
1$
0#
#4000000
0!
0a
0b
#4080000
1!
1a
1b
1k
0i
0r
1d
0I
0'
#4160000
0!
0a
0b
#4240000
1!
1a
1b
1i
0t
1e
1s
1r
1q
0o
0l
0j
0d
0F
1H
1I
1J
1K
1)
1(
1'
1&
0$
1f
#4320000
0!
0a
0b
#4400000
1!
1a
1b
0m
0k
0i
1g
1t
0e
0s
0r
0q
1d
0f
0H
0I
0J
0K
0)
0(
0'
0&
1f
#4480000
0!
0a
0b
#4560000
1!
1a
1b
1i
1u
1r
1j
0d
1I
1'
1v
#4640000
0!
0a
0b
#4720000
1!
1a
1b
1z
1k
0i
0u
1h
1#!
0!!
0{
1w
0v
0r
1q
1d
1H
0I
0N
1P
1.
0,
0'
1&
1{
0w
1v
0g
0k
0t
0h
0q
0f
0j
0H
1K
1)
0&
#4800000
0!
0a
0b
#4880000
1!
1a
1b
1i
1s
1r
1q
1n
1j
0d
1E
1H
1I
1J
1(
1'
1&
1#
#4960000
0!
0a
0b
#5040000
1!
1a
1b
1k
0i
1t
0r
0q
1p
0n
1d
0E
1G
0H
0I
0K
0)
0'
0&
1%
0#
#5120000
0!
0a
0b
#5200000
1!
1a
1b
1i
1r
0p
1l
0j
0d
0G
1I
1'
0%
#5280000
0!
0a
0b
#5360000
1!
1a
1b
1m
0k
0i
0s
1q
1n
1d
1E
1H
0J
0(
1&
1#
#5440000
0!
0a
0b
#5520000
1!
1a
1b
1i
0q
1o
0n
1j
0d
0E
1F
0H
0&
1$
0#
#5600000
0!
0a
0b
#5680000
1!
1a
1b
1k
0i
0r
1d
0I
0'
#5760000
0!
0a
0b
#5840000
1!
1a
1b
1i
0t
1e
1s
1r
1q
0o
0l
0j
0d
0F
1H
1I
1J
1K
1)
1(
1'
1&
0$
1f
#5920000
0!
0a
0b
#6000000
1!
1a
1b
0m
0k
0i
1g
1t
0e
0s
0r
0q
1d
0f
0H
0I
0J
0K
0)
0(
0'
0&
1f
#6080000
0!
0a
0b
#6160000
1!
1a
1b
1i
1u
1r
1j
0d
1I
1'
0{
1w
0v
#6240000
0!
0a
0b
#6320000
1!
1a
1b
0|
0z
1x
1k
0i
0u
1h
0$!
1"!
1}
1v
0r
1q
1d
1H
0I
1L
1O
0Q
0/
1-
1*
0'
1&
0v
0g
0k
0t
0h
0q
0f
0j
0H
1K
1)
0&
#6400000
0!
0a
0b
#6480000
1!
1a
1b
1i
1s
1r
1q
1n
1j
0d
1E
1H
1I
1J
1(
1'
1&
1#
#6560000
0!
0a
0b
#6640000
1!
1a
1b
1k
0i
1t
0r
0q
1p
0n
1d
0E
1G
0H
0I
0K
0)
0'
0&
1%
0#
#6720000
0!
0a
0b
#6800000
1!
1a
1b
1i
1r
0p
1l
0j
0d
0G
1I
1'
0%
#6880000
0!
0a
0b
#6960000
1!
1a
1b
1m
0k
0i
0s
1q
1n
1d
1E
1H
0J
0(
1&
1#
#7040000
0!
0a
0b
#7120000
1!
1a
1b
1i
0q
1o
0n
1j
0d
0E
1F
0H
0&
1$
0#
#7200000
0!
0a
0b
#7280000
1!
1a
1b
1k
0i
0r
1d
0I
0'
#7360000
0!
0a
0b
#7440000
1!
1a
1b
1i
0t
1e
1s
1r
1q
0o
0l
0j
0d
0F
1H
1I
1J
1K
1)
1(
1'
1&
0$
1f
#7520000
0!
0a
0b
#7600000
1!
1a
1b
0m
0k
0i
1g
1t
0e
0s
0r
0q
1d
0f
0H
0I
0J
0K
0)
0(
0'
0&
1f
#7680000
0!
0a
0b
#7760000
1!
1a
1b
1i
1u
1r
1j
0d
1I
1'
1v
#7840000
0!
0a
0b
#7920000
1!
1a
1b
1z
1k
0i
1&!
0u
1h
0"!
1~
0}
1{
0v
0r
1q
1d
1H
0I
0L
1M
0O
0-
1+
0*
0'
1&
0{
1v
0g
0k
0t
0h
0q
0f
0j
0H
1K
1)
0&
#8000000
0!
0a
0b
#8080000
1!
1a
1b
1i
1s
1r
1q
1n
1j
0d
1E
1H
1I
1J
1(
1'
1&
1#
#8160000
0!
0a
0b
#8240000
1!
1a
1b
1k
0i
1t
0r
0q
1p
0n
1d
0E
1G
0H
0I
0K
0)
0'
0&
1%
0#
#8320000
0!
0a
0b
#8400000
1!
1a
1b
1i
1r
0p
1l
0j
0d
0G
1I
1'
0%
#8480000
0!
0a
0b
#8560000
1!
1a
1b
1m
0k
0i
0s
1q
1n
1d
1E
1H
0J
0(
1&
1#
#8640000
0!
0a
0b
#8720000
1!
1a
1b
1i
0q
1o
0n
1j
0d
0E
1F
0H
0&
1$
0#
#8800000
0!
0a
0b
#8880000
1!
1a
1b
1k
0i
0r
1d
0I
0'
#8960000
0!
0a
0b
#9040000
1!
1a
1b
1i
0t
1e
1s
1r
1q
0o
0l
0j
0d
0F
1H
1I
1J
1K
1)
1(
1'
1&
0$
1f
#9120000
0!
0a
0b
#9200000
1!
1a
1b
0m
0k
0i
1g
1t
0e
0s
0r
0q
1d
0f
0H
0I
0J
0K
0)
0(
0'
0&
1f
#9280000
0!
0a
0b
#9360000
1!
1a
1b
1i
1u
1r
1j
0d
1I
1'
1'!
1{
0v
#9440000
0!
0a
0b
#9520000
1!
1a
1b
1)!
1|
0z
1k
0i
1/!
0&!
1y
0u
1h
17!
16!
15!
12!
1*!
0'!
0#!
1v
0r
1q
1d
1H
0I
0P
1S
1V
1W
1X
0/!
16
15
14
11
0.
0'
1&
0*!
1'!
0v
0x
0|
0g
0k
0y
0t
0h
1%!
0~
0w
0{
0q
0f
0j
0H
0M
1R
1K
1)
10
0+
0&
#9600000
0!
0a
0b
#9680000
1!
1a
1b
1i
1s
1r
1q
1n
1j
0d
1E
1H
1I
1J
1(
1'
1&
1#
#9760000
0!
0a
0b
#9840000
1!
1a
1b
1k
0i
1t
0r
0q
1p
0n
1d
0E
1G
0H
0I
0K
0)
0'
0&
1%
0#
#9920000
0!
0a
0b
