lab08/lab082/lab08/simulation/qsim/lab08.msim.vcd
$comment
	File created using the following command:
		vcd file lab08.msim.vcd -direction
$end
$date
	Fri Nov 29 14:52:29 2019
$end
$version
	ModelSim Version 10.5b
$end
$timescale
	1ps
$end

$scope module lab08_vlg_vec_tst $end
$var reg 1 ! A $end
$var reg 1 " B $end
$var reg 1 # C $end
$var wire 1 $ X $end
$var wire 1 % Y $end

$scope module i1 $end
$var wire 1 & gnd $end
$var wire 1 ' vcc $end
$var wire 1 ( unknown $end
$var tri1 1 ) devclrn $end
$var tri1 1 * devpor $end
$var tri1 1 + devoe $end
$var wire 1 , X~output_o $end
$var wire 1 - Y~output_o $end
$var wire 1 . B~input_o $end
$var wire 1 / C~input_o $end
$var wire 1 0 A~input_o $end
$var wire 1 1 X~0_combout $end
$var wire 1 2 Y~0_combout $end
$upscope $end
$upscope $end
$enddefinitions $end
#0
$dumpvars
0!
0"
0#
0$
1%
0&
1'
x(
1)
1*
1+
0,
1-
0.
0/
00
01
02
$end
#500000
1!
10
12
0-
0%
#1000000
1"
0!
1.
00
#1500000
1!
10
#2000000
1#
0"
0!
1/
0.
00
02
11
1,
1-
1%
1$
#2500000
1!
10
01
0,
0$
#3000000
1"
0!
1.
00
12
11
1,
0-
0%
1$
#3500000
1!
10
02
1-
1%
#4000000
0#
0"
0!
0/
0.
00
01
0,
0$
#4500000
1!
10
12
0-
0%
#5000000
1"
0!
1.
00
#5500000
1!
10
#6000000
1#
0"
0!
1/
0.
00
02
11
1,
1-
1%
1$
#6500000
1!
10
01
0,
0$
#7000000
1"
0!
1.
00
12
11
1,
0-
0%
1$
#7500000
1!
10
02
1-
1%
#8000000
0#
0"
0!
0/
0.
00
01
0,
0$
#8500000
1!
10
12
0-
0%
#9000000
1"
0!
1.
00
#9500000
1!
10
#10000000
1#
0"
0!
1/
0.
00
02
11
1,
1-
1%
1$
#10500000
1!
10
01
0,
0$
#11000000
1"
0!
1.
00
12
11
1,
0-
0%
1$
#11500000
1!
10
02
1-
1%
#12000000
0#
0"
0!
0/
0.
00
01
0,
0$
#12500000
1!
10
12
0-
0%
#13000000
1"
0!
1.
00
#13500000
1!
10
#14000000
1#
0"
0!
1/
0.
00
02
11
1,
1-
1%
1$
#14500000
1!
10
01
0,
0$
#15000000
1"
0!
1.
00
12
11
1,
0-
0%
1$
#15500000
1!
10
02
1-
1%
#16000000
0#
0"
0!
0/
0.
00
01
0,
0$
#16500000
1!
10
12
0-
0%
#17000000
1"
0!
1.
00
#17500000
1!
10
#18000000
1#
0"
0!
1/
0.
00
02
11
1,
1-
1%
1$
#18500000
1!
10
01
0,
0$
#19000000
1"
0!
1.
00
12
11
1,
0-
0%
1$
#19500000
1!
10
02
1-
1%
#20000000
0#
0"
0!
0/
0.
00
01
0,
0$
#20500000
1!
10
12
0-
0%
#21000000
1"
0!
1.
00
#21500000
1!
10
#22000000
1#
0"
0!
1/
0.
00
02
11
1,
1-
1%
1$
#22500000
1!
10
01
0,
0$
#23000000
1"
0!
1.
00
12
11
1,
0-
0%
1$
#23500000
1!
10
02
1-
1%
#24000000
0#
0"
0!
0/
0.
00
01
0,
0$
#24500000
1!
10
12
0-
0%
#25000000
1"
0!
1.
00
#25500000
1!
10
#26000000
1#
0"
0!
1/
0.
00
02
11
1,
1-
1%
1$
#26500000
1!
10
01
0,
0$
#27000000
1"
0!
1.
00
12
11
1,
0-
0%
1$
#27500000
1!
10
02
1-
1%
#28000000
0#
0"
0!
0/
0.
00
01
0,
0$
#28500000
1!
10
12
0-
0%
#29000000
1"
0!
1.
00
#29500000
1!
10
#30000000
1#
0"
0!
1/
0.
00
02
11
1,
1-
1%
1$
#30500000
1!
10
01
0,
0$
#31000000
1"
0!
1.
00
12
11
1,
0-
0%
1$
#31500000
1!
10
02
1-
1%
